…
  - Les erreurs de mesure des labels (5).

  - Les labels (5).

<!-- end list -->

``` r
# First 25 lines of the data frame
head(data_filtered, n = 25)
```

    ## # A tibble: 25 x 1,591
    ##    Position Covariable `ARN 1` `ARN 2` `ARN 3` `ARN 4` `ARN 5` `ARN 6` `ARN 7`
    ##    <fct>    <fct>        <dbl>   <dbl>   <dbl>   <dbl>   <dbl>   <dbl>   <dbl>
    ##  1 1        nucleotide   3      3        3       3       3       3       3    
    ##  2 1        structure~   5      5        5       5       5       5       5    
    ##  3 1        erreur_st~   0.136  0.0931   0.194   0.422   0.484   0.175   0.161
    ##  4 1        erreur_mg~   0.261  0.136    0.273   0.480   0.872   0.285   0.252
    ##  5 1        erreur_ph~   0.263  0.170    0.339   0.982   0.704   0.262   0.308
    ##  6 1        erreur_mg~   0.150  0.103    0.165   0.583   0.384   0.138   0.155
    ##  7 1        erreur_50c   0.217  0.150    0.286   0.931   0.743   0.264   0.261
    ##  8 1        reactivity   0.330  0.448    0.764   0.895   1.16    0.585   0.64 
    ##  9 1        score_mg_~   0.756  0.250    0.956   0.460   1.69    0.624   1.02 
    ## 10 1        score_ph10   2.34   2.24     1.96    2.77    1.86    1.90    2.60 
    ## # ... with 15 more rows, and 1,582 more variables: `ARN 8` <dbl>, `ARN
    ## #   9` <dbl>, `ARN 10` <dbl>, `ARN 11` <dbl>, `ARN 12` <dbl>, `ARN 13` <dbl>,
    ## #   `ARN 14` <dbl>, `ARN 15` <dbl>, `ARN 16` <dbl>, `ARN 17` <dbl>, `ARN
    ## #   18` <dbl>, `ARN 19` <dbl>, `ARN 20` <dbl>, `ARN 21` <dbl>, `ARN 22` <dbl>,
    ## #   `ARN 23` <dbl>, `ARN 24` <dbl>, `ARN 25` <dbl>, `ARN 26` <dbl>, `ARN
    ## #   27` <dbl>, `ARN 28` <dbl>, `ARN 29` <dbl>, `ARN 30` <dbl>, `ARN 31` <dbl>,
    ## #   `ARN 32` <dbl>, `ARN 33` <dbl>, `ARN 34` <dbl>, `ARN 35` <dbl>, `ARN
    ## #   36` <dbl>, `ARN 37` <dbl>, `ARN 38` <dbl>, `ARN 39` <dbl>, `ARN 40` <dbl>,
    ## #   `ARN 41` <dbl>, `ARN 42` <dbl>, `ARN 43` <dbl>, `ARN 44` <dbl>, `ARN
…
